{
    "success": true,
    "data": {
        "current_page": 1,
        "data": [
            {
                "id": 1,
                "registration_id": 4661,
                "qrcode": "VRLP0000000212134661",
                "qualification_status": "APPROVED",
                "verified_by": "RUFO, JAN WELHERN B.",
                "assessment_status": "1",
                "status": "1",
                "deleted_at": null,
                "vaxcert_pre_registration": {
                    "id": 4661,
                    "last_name": "DE TORRES",
                    "first_name": "DARIUS",
                    "middle_name": "ARIAS",
                    "suffix": "NA",
                    "date_of_birth": "09/08/1989",
                    "sex": "01_MALE",
                    "barangay": "BANLIC",
                    "home_address": "71"
                }
            },
            {
                "id": 2,
                "registration_id": 4394,
                "qrcode": "VEFY0000000212134394",
                "qualification_status": "APPROVED",
                "verified_by": "RUFO, JAN WELHERN B.",
                "assessment_status": "1",
                "status": "1",
                "deleted_at": null,
                "vaxcert_pre_registration": {
                    "id": 4394,
                    "last_name": "DE GUIA",
                    "first_name": "LOVELY",
                    "middle_name": "SILVA",
                    "suffix": "NA",
                    "date_of_birth": "09/14/1984",
                    "sex": "02_FEMALE",
                    "barangay": "BANLIC",
                    "home_address": "216"
                }
            },
            {
                "id": 3,
                "registration_id": 4379,
                "qrcode": "VPIK0000000212134379",
                "qualification_status": "APPROVED",
                "verified_by": "RUFO, JAN WELHERN B.",
                "assessment_status": "1",
                "status": "1",
                "deleted_at": null,
                "vaxcert_pre_registration": {
                    "id": 4379,
                    "last_name": "DOLAR",
                    "first_name": "MARC ANGELO",
                    "middle_name": "PANGANIBAN",
                    "suffix": "NA",
                    "date_of_birth": "07/28/1989",
                    "sex": "01_MALE",
                    "barangay": "SALA",
                    "home_address": "939 PUROK 6 CAMP VICENTE LIM"
                }
            },
            {
                "id": 4,
                "registration_id": 4550,
                "qrcode": "VOMD0000000212134550",
                "qualification_status": "APPROVED",
                "verified_by": "RUFO, JAN WELHERN B.",
                "assessment_status": "1",
                "status": "1",
                "deleted_at": null,
                "vaxcert_pre_registration": {
                    "id": 4550,
                    "last_name": "ALFORJA",
                    "first_name": "LARRY",
                    "middle_name": "REYES",
                    "suffix": "NA",
                    "date_of_birth": "1/10/71",
                    "sex": "01_MALE",
                    "barangay": "MAMATID",
                    "home_address": "313"
                }
            },
            {
                "id": 5,
                "registration_id": 4517,
                "qrcode": "VATB0000000212134517",
                "qualification_status": "APPROVED",
                "verified_by": "RUFO, JAN WELHERN B.",
                "assessment_status": "1",
                "status": "1",
                "deleted_at": null,
                "vaxcert_pre_registration": {
                    "id": 4517,
                    "last_name": "ORTIAGA",
                    "first_name": "SHIERYLE",
                    "middle_name": "HERMANO",
                    "suffix": "NA",
                    "date_of_birth": "01/09/1975",
                    "sex": "02_FEMALE",
                    "barangay": "GULOD",
                    "home_address": "56"
                }
            },
            {
                "id": 6,
                "registration_id": 4535,
                "qrcode": "VBUZ0000000212134535",
                "qualification_status": "APPROVED",
                "verified_by": "RUFO, JAN WELHERN B.",
                "assessment_status": "1",
                "status": "1",
                "deleted_at": null,
                "vaxcert_pre_registration": {
                    "id": 4535,
                    "last_name": "CATABAY",
                    "first_name": "RIA",
                    "middle_name": "NAVEA",
                    "suffix": "NA",
                    "date_of_birth": "06-27-1983",
                    "sex": "02_FEMALE",
                    "barangay": "GULOD",
                    "home_address": "51 PUROK 1"
                }
            },
            {
                "id": 7,
                "registration_id": 4538,
                "qrcode": "VWTM0000000212134538",
                "qualification_status": "APPROVED",
                "verified_by": "RUFO, JAN WELHERN B.",
                "assessment_status": "1",
                "status": "1",
                "deleted_at": null,
                "vaxcert_pre_registration": {
                    "id": 4538,
                    "last_name": "ESGUERRA",
                    "first_name": "EVAN",
                    "middle_name": "CARLOS",
                    "suffix": "NA",
                    "date_of_birth": "01/20/1974",
                    "sex": "01_MALE",
                    "barangay": "NIUGAN",
                    "home_address": "BLOCK 9 LOT 30 PHASE 2 ST. JOSEPH VILLAGE 7"
                }
            },
            {
                "id": 8,
                "registration_id": 4617,
                "qrcode": "VRIG0000000212134617",
                "qualification_status": "APPROVED",
                "verified_by": "RUFO, JAN WELHERN B.",
                "assessment_status": "1",
                "status": "1",
                "deleted_at": null,
                "vaxcert_pre_registration": {
                    "id": 4617,
                    "last_name": "LAPITAN",
                    "first_name": "ALVIN",
                    "middle_name": "TALION",
                    "suffix": "NA",
                    "date_of_birth": "07/14/1975",
                    "sex": "01_MALE",
                    "barangay": "BARANGAY_TRES_(POB.)",
                    "home_address": "133 STO. NINO EXECUTIVE HOMES"
                }
            },
            {
                "id": 9,
                "registration_id": 4495,
                "qrcode": "VCXQ0000000212134495",
                "qualification_status": "APPROVED",
                "verified_by": "RUFO, JAN WELHERN B.",
                "assessment_status": "1",
                "status": "1",
                "deleted_at": null,
                "vaxcert_pre_registration": {
                    "id": 4495,
                    "last_name": "PARALA",
                    "first_name": "ADAM JASON",
                    "middle_name": "BAILON",
                    "suffix": "NA",
                    "date_of_birth": "3/3/97",
                    "sex": "01_MALE",
                    "barangay": "SAN ISIDRO",
                    "home_address": "418 JADE ST. SHINELAND"
                }
            },
            {
                "id": 10,
                "registration_id": 4378,
                "qrcode": "VQCY0000000212134378",
                "qualification_status": "APPROVED",
                "verified_by": "RUFO, JAN WELHERN B.",
                "assessment_status": "1",
                "status": "1",
                "deleted_at": null,
                "vaxcert_pre_registration": {
                    "id": 4378,
                    "last_name": "GARBIN",
                    "first_name": "JOHN",
                    "middle_name": "BARUNDIA",
                    "suffix": "NA",
                    "date_of_birth": "11/18/92",
                    "sex": "01_MALE",
                    "barangay": "GULOD",
                    "home_address": "185PUROK 2"
                }
            },
            {
                "id": 11,
                "registration_id": 4491,
                "qrcode": "VYQV0000000212134491",
                "qualification_status": "APPROVED",
                "verified_by": "RUFO, JAN WELHERN B.",
                "assessment_status": "1",
                "status": "1",
                "deleted_at": null,
                "vaxcert_pre_registration": {
                    "id": 4491,
                    "last_name": "INOCETO",
                    "first_name": "ALU VICTORIA",
                    "middle_name": "JARO",
                    "suffix": "NA",
                    "date_of_birth": "06/13/1995",
                    "sex": "02_FEMALE",
                    "barangay": "BANAYBANAY",
                    "home_address": "B15 L53 MATULUNGIN ST"
                }
            },
            {
                "id": 12,
                "registration_id": 4496,
                "qrcode": "VKAR0000000212134496",
                "qualification_status": "APPROVED",
                "verified_by": "RUFO, JAN WELHERN B.",
                "assessment_status": "1",
                "status": "1",
                "deleted_at": null,
                "vaxcert_pre_registration": {
                    "id": 4496,
                    "last_name": "PEREZ",
                    "first_name": "GODFREY",
                    "middle_name": "MONTEROLA",
                    "suffix": "NA",
                    "date_of_birth": "9/30/1995",
                    "sex": "01_MALE",
                    "barangay": "GULOD",
                    "home_address": "390 PUROK 3"
                }
            },
            {
                "id": 13,
                "registration_id": 4478,
                "qrcode": "VMFR0000000212134478",
                "qualification_status": "APPROVED",
                "verified_by": "RUFO, JAN WELHERN B.",
                "assessment_status": "1",
                "status": "1",
                "deleted_at": null,
                "vaxcert_pre_registration": {
                    "id": 4478,
                    "last_name": "FRANCISCO",
                    "first_name": "LAILA",
                    "middle_name": "ABARIENTOS",
                    "suffix": "NA",
                    "date_of_birth": "03/21/1975",
                    "sex": "02_FEMALE",
                    "barangay": "MAMATID",
                    "home_address": "BLK. 83 L39 PH.1 MABUHAY CITY"
                }
            },
            {
                "id": 14,
                "registration_id": 4570,
                "qrcode": "VINN0000000212134570",
                "qualification_status": "APPROVED",
                "verified_by": "RUFO, JAN WELHERN B.",
                "assessment_status": "1",
                "status": "1",
                "deleted_at": null,
                "vaxcert_pre_registration": {
                    "id": 4570,
                    "last_name": "BARUNDIA",
                    "first_name": "AMIHAN",
                    "middle_name": "LAYOG",
                    "suffix": "NA",
                    "date_of_birth": "12/20/1973",
                    "sex": "02_FEMALE",
                    "barangay": "NIUGAN",
                    "home_address": "934"
                }
            },
            {
                "id": 15,
                "registration_id": 4593,
                "qrcode": "VUQU0000000212134593",
                "qualification_status": "APPROVED",
                "verified_by": "RUFO, JAN WELHERN B.",
                "assessment_status": "1",
                "status": "1",
                "deleted_at": null,
                "vaxcert_pre_registration": {
                    "id": 4593,
                    "last_name": "ENTREDICHO",
                    "first_name": "FRANCISCO",
                    "middle_name": "BATERINA",
                    "suffix": "NA",
                    "date_of_birth": "07/24/1962",
                    "sex": "01_MALE",
                    "barangay": "BARANGAY UNO (POB.)",
                    "home_address": "BLK30 LOT1 SOUTH VILLE"
                }
            }
        ],
        "first_page_url": "http://cvimsmicro.com/api/cabvax/vaxcert-qualifiedpatients?page=1",
        "from": 1,
        "last_page": 15228,
        "last_page_url": "http://cvimsmicro.com/api/cabvax/vaxcert-qualifiedpatients?page=15228",
        "next_page_url": "http://cvimsmicro.com/api/cabvax/vaxcert-qualifiedpatients?page=2",
        "path": "http://cvimsmicro.com/api/cabvax/vaxcert-qualifiedpatients",
        "per_page": 15,
        "prev_page_url": null,
        "to": 15,
        "total": 228411
    }
}